
tests1:
- case: 验证响应中start和count与请求中的参数一致
  http:
    method: POST
    path: /adminApi/pmsDepartment/companyList
    headers:
      User-Agent: Mozilla/5.0 (Windows NT 10.0; Win64; x64) AppleWebKit/537.36 (KHTML, like Gecko) Chrome/84.0.4147.89 Safari/537.36
    data:
      currentPage: $CURRENTPAGE$
      pageSize: 10
      search: '{"name":""}'
  expected:
    response:
      code: 200
      $.page.list[0].id: 1
      $.page.list[0].name: 奇治信息总公司
    verifty:
      sql: SELECT * FROM qp_itfin2.pms_department WHERE `name`='奇治信息总公司'; SELECT 2 * FROM qp_itfin2.pms_de2artment WH2ERE `nam22e`='奇治信息总公司'
- case: 验证响应
  http:
    method: POST
    path: /adminApi/pmsDepartment/companyList
    headers:
      User-Agent: null
    data:
      currentPage: 2
      pageSize: 10
      search: {"name":""}
  expected:
    response:
      code: 200
      page: {"totalCount":61,"pageSize":10,"totalPage":7,"currentPage":2,"list":[{"id":221,"name":"测试系统设置","childNum":0,"statusFlag":1,"contractDate":null},{"id":228,"name":"mjxceshi","childNum":0,"statusFlag":1,"contractDate":null},{"id":229,"name":"mjxfdfasf","childNum":0,"statusFlag":1,"contractDate":null},{"id":230,"name":"PressureDepartment","childNum":0,"statusFlag":1,"contractDate":null},{"id":232,"name":"自动化测试","childNum":0,"statusFlag":1,"contractDate":null},{"id":258,"name":"机构中台测试","childNum":1,"statusFlag":1,"contractDate":null},{"id":260,"name":"我不知道发发","childNum":0,"statusFlag":1,"contractDate":null},{"id":278,"name":"高危删除","childNum":0,"statusFlag":1,"contractDate":null},{"id":284,"name":"机构中台测试机构","childNum":0,"statusFlag":1,"contractDate":null},{"id":310,"name":"并发压测2","childNum":0,"statusFlag":1,"contractDate":null}]}
test2:
  - case: 测试全局变量的取值
    setup:
    teardown:
    http:
      method: POST
      path: /adminApi/pmsDepartment/companyList
      headers:
        User-Agent: Mozilla/5.0 (Windows NT 10.0; Win64; x64) AppleWebKit/537.36 (KHTML, like Gecko) Chrome/84.0.4147.89 Safari/537.36
      data:
        getdata: $COMPANY_LIST$
        currentPage: 1
        pageSize: 10
        search: {"name":"dfghdf","list":[1,2,3,4,5]}
        search2: '{"name":""}'

    expected:
      response:
        code: 200
        #校验部分返回值，只校验返回的第一个数据
        part_verify:
          id: 1
          name: 奇治信息总公司